%YAML 1.1
%TAG !u! tag:unity3d.com,2011:
--- !u!114 &1007432504560539063
MonoBehaviour:
  m_ObjectHideFlags: 0
  m_CorrespondingSourceObject: {fileID: 0}
  m_PrefabInstance: {fileID: 0}
  m_PrefabAsset: {fileID: 0}
  m_GameObject: {fileID: 203864768720475104}
  m_Enabled: 1
  m_EditorHideFlags: 0
  m_Script: {fileID: 11500000, guid: e3ff2e34c35bcbc4ba234f539c18c0f3, type: 3}
  m_Name: 
  m_EditorClassIdentifier: 
  _player: {fileID: 0}
  _speed: 10
  _rigidbody: {fileID: 148627823570447728}
  _life: 10
  _animator: {fileID: 253159255802216462}
--- !u!1001 &202801852147567782
PrefabInstance:
  m_ObjectHideFlags: 0
  serializedVersion: 2
  m_Modification:
    m_TransformParent: {fileID: 0}
    m_Modifications:
    - target: {fileID: 1190601789873990, guid: a8145fd98e506094980d05080bde9072, type: 3}
      propertyPath: m_Name
      value: ZombieEnemy
      objectReference: {fileID: 0}
    - target: {fileID: 54174046382449110, guid: a8145fd98e506094980d05080bde9072,
        type: 3}
      propertyPath: m_Drag
      value: 5
      objectReference: {fileID: 0}
    - target: {fileID: 4257605397364450, guid: a8145fd98e506094980d05080bde9072, type: 3}
      propertyPath: m_LocalPosition.x
      value: 0
      objectReference: {fileID: 0}
    - target: {fileID: 4257605397364450, guid: a8145fd98e506094980d05080bde9072, type: 3}
      propertyPath: m_LocalPosition.y
      value: 0
      objectReference: {fileID: 0}
    - target: {fileID: 4257605397364450, guid: a8145fd98e506094980d05080bde9072, type: 3}
      propertyPath: m_LocalPosition.z
      value: 0
      objectReference: {fileID: 0}
    - target: {fileID: 4257605397364450, guid: a8145fd98e506094980d05080bde9072, type: 3}
      propertyPath: m_LocalRotation.x
      value: 0
      objectReference: {fileID: 0}
    - target: {fileID: 4257605397364450, guid: a8145fd98e506094980d05080bde9072, type: 3}
      propertyPath: m_LocalRotation.y
      value: 0
      objectReference: {fileID: 0}
    - target: {fileID: 4257605397364450, guid: a8145fd98e506094980d05080bde9072, type: 3}
      propertyPath: m_LocalRotation.z
      value: 0
      objectReference: {fileID: 0}
    - target: {fileID: 4257605397364450, guid: a8145fd98e506094980d05080bde9072, type: 3}
      propertyPath: m_LocalRotation.w
      value: 1
      objectReference: {fileID: 0}
    - target: {fileID: 4257605397364450, guid: a8145fd98e506094980d05080bde9072, type: 3}
      propertyPath: m_RootOrder
      value: 0
      objectReference: {fileID: 0}
    - target: {fileID: 4257605397364450, guid: a8145fd98e506094980d05080bde9072, type: 3}
      propertyPath: m_LocalEulerAnglesHint.x
      value: 0
      objectReference: {fileID: 0}
    - target: {fileID: 4257605397364450, guid: a8145fd98e506094980d05080bde9072, type: 3}
      propertyPath: m_LocalEulerAnglesHint.y
      value: 0
      objectReference: {fileID: 0}
    - target: {fileID: 4257605397364450, guid: a8145fd98e506094980d05080bde9072, type: 3}
      propertyPath: m_LocalEulerAnglesHint.z
      value: 0
      objectReference: {fileID: 0}
    - target: {fileID: 4257605397364450, guid: a8145fd98e506094980d05080bde9072, type: 3}
      propertyPath: m_LocalScale.x
      value: 3
      objectReference: {fileID: 0}
    - target: {fileID: 4257605397364450, guid: a8145fd98e506094980d05080bde9072, type: 3}
      propertyPath: m_LocalScale.y
      value: 3
      objectReference: {fileID: 0}
    - target: {fileID: 4257605397364450, guid: a8145fd98e506094980d05080bde9072, type: 3}
      propertyPath: m_LocalScale.z
      value: 3
      objectReference: {fileID: 0}
    - target: {fileID: 95446636183784616, guid: a8145fd98e506094980d05080bde9072,
        type: 3}
      propertyPath: m_Controller
      value: 
      objectReference: {fileID: 9100000, guid: 6e43f7f118282244a8c325171096ab53, type: 2}
    m_RemovedComponents:
    - {fileID: 114062226022497710, guid: a8145fd98e506094980d05080bde9072, type: 3}
  m_SourcePrefab: {fileID: 100100000, guid: a8145fd98e506094980d05080bde9072, type: 3}
--- !u!1 &203864768720475104 stripped
GameObject:
  m_CorrespondingSourceObject: {fileID: 1190601789873990, guid: a8145fd98e506094980d05080bde9072,
    type: 3}
  m_PrefabInstance: {fileID: 202801852147567782}
  m_PrefabAsset: {fileID: 0}
--- !u!95 &253159255802216462 stripped
Animator:
  m_CorrespondingSourceObject: {fileID: 95446636183784616, guid: a8145fd98e506094980d05080bde9072,
    type: 3}
  m_PrefabInstance: {fileID: 202801852147567782}
  m_PrefabAsset: {fileID: 0}
--- !u!54 &148627823570447728 stripped
Rigidbody:
  m_CorrespondingSourceObject: {fileID: 54174046382449110, guid: a8145fd98e506094980d05080bde9072,
    type: 3}
  m_PrefabInstance: {fileID: 202801852147567782}
  m_PrefabAsset: {fileID: 0}
