%YAML 1.1
%TAG !u! tag:unity3d.com,2011:
--- !u!29 &1
OcclusionCullingSettings:
  m_ObjectHideFlags: 0
  serializedVersion: 2
  m_OcclusionBakeSettings:
    smallestOccluder: 5
    smallestHole: 0.25
    backfaceThreshold: 100
  m_SceneGUID: 00000000000000000000000000000000
  m_OcclusionCullingData: {fileID: 0}
--- !u!104 &2
RenderSettings:
  m_ObjectHideFlags: 0
  serializedVersion: 9
  m_Fog: 0
  m_FogColor: {r: 0.5, g: 0.5, b: 0.5, a: 1}
  m_FogMode: 3
  m_FogDensity: 0.01
  m_LinearFogStart: 0
  m_LinearFogEnd: 300
  m_AmbientSkyColor: {r: 0.212, g: 0.227, b: 0.259, a: 1}
  m_AmbientEquatorColor: {r: 0.114, g: 0.125, b: 0.133, a: 1}
  m_AmbientGroundColor: {r: 0.047, g: 0.043, b: 0.035, a: 1}
  m_AmbientIntensity: 1
  m_AmbientMode: 0
  m_SubtractiveShadowColor: {r: 0.42, g: 0.478, b: 0.627, a: 1}
  m_SkyboxMaterial: {fileID: 10304, guid: 0000000000000000f000000000000000, type: 0}
  m_HaloStrength: 0.5
  m_FlareStrength: 1
  m_FlareFadeSpeed: 3
  m_HaloTexture: {fileID: 0}
  m_SpotCookie: {fileID: 10001, guid: 0000000000000000e000000000000000, type: 0}
  m_DefaultReflectionMode: 0
  m_DefaultReflectionResolution: 128
  m_ReflectionBounces: 1
  m_ReflectionIntensity: 1
  m_CustomReflection: {fileID: 0}
  m_Sun: {fileID: 0}
  m_IndirectSpecularColor: {r: 0, g: 0, b: 0, a: 1}
  m_UseRadianceAmbientProbe: 0
--- !u!157 &3
LightmapSettings:
  m_ObjectHideFlags: 0
  serializedVersion: 11
  m_GIWorkflowMode: 1
  m_GISettings:
    serializedVersion: 2
    m_BounceScale: 1
    m_IndirectOutputScale: 1
    m_AlbedoBoost: 1
    m_EnvironmentLightingMode: 0
    m_EnableBakedLightmaps: 1
    m_EnableRealtimeLightmaps: 1
  m_LightmapEditorSettings:
    serializedVersion: 12
    m_Resolution: 2
    m_BakeResolution: 40
    m_AtlasSize: 1024
    m_AO: 0
    m_AOMaxDistance: 1
    m_CompAOExponent: 1
    m_CompAOExponentDirect: 0
    m_ExtractAmbientOcclusion: 0
    m_Padding: 2
    m_LightmapParameters: {fileID: 0}
    m_LightmapsBakeMode: 1
    m_TextureCompression: 1
    m_FinalGather: 0
    m_FinalGatherFiltering: 1
    m_FinalGatherRayCount: 256
    m_ReflectionCompression: 2
    m_MixedBakeMode: 2
    m_BakeBackend: 1
    m_PVRSampling: 1
    m_PVRDirectSampleCount: 32
    m_PVRSampleCount: 512
    m_PVRBounces: 2
    m_PVREnvironmentSampleCount: 256
    m_PVREnvironmentReferencePointCount: 2048
    m_PVRFilteringMode: 1
    m_PVRDenoiserTypeDirect: 1
    m_PVRDenoiserTypeIndirect: 1
    m_PVRDenoiserTypeAO: 1
    m_PVRFilterTypeDirect: 0
    m_PVRFilterTypeIndirect: 0
    m_PVRFilterTypeAO: 0
    m_PVREnvironmentMIS: 1
    m_PVRCulling: 1
    m_PVRFilteringGaussRadiusDirect: 1
    m_PVRFilteringGaussRadiusIndirect: 5
    m_PVRFilteringGaussRadiusAO: 2
    m_PVRFilteringAtrousPositionSigmaDirect: 0.5
    m_PVRFilteringAtrousPositionSigmaIndirect: 2
    m_PVRFilteringAtrousPositionSigmaAO: 1
    m_ShowResolutionOverlay: 1
    m_ExportTrainingData: 0
  m_LightingDataAsset: {fileID: 0}
  m_UseShadowmask: 1
--- !u!196 &4
NavMeshSettings:
  serializedVersion: 2
  m_ObjectHideFlags: 0
  m_BuildSettings:
    serializedVersion: 2
    agentTypeID: 0
    agentRadius: 0.5
    agentHeight: 2
    agentSlope: 45
    agentClimb: 0.4
    ledgeDropHeight: 0
    maxJumpAcrossDistance: 0
    minRegionArea: 2
    manualCellSize: 0
    cellSize: 0.16666667
    manualTileSize: 0
    tileSize: 256
    accuratePlacement: 0
    debug:
      m_Flags: 0
  m_NavMeshData: {fileID: 0}
--- !u!1 &110522196
GameObject:
  m_ObjectHideFlags: 0
  m_CorrespondingSourceObject: {fileID: 0}
  m_PrefabInstance: {fileID: 0}
  m_PrefabAsset: {fileID: 0}
  serializedVersion: 6
  m_Component:
  - component: {fileID: 110522198}
  - component: {fileID: 110522197}
  m_Layer: 0
  m_Name: Directional Light
  m_TagString: Untagged
  m_Icon: {fileID: 0}
  m_NavMeshLayer: 0
  m_StaticEditorFlags: 0
  m_IsActive: 1
--- !u!108 &110522197
Light:
  m_ObjectHideFlags: 0
  m_CorrespondingSourceObject: {fileID: 0}
  m_PrefabInstance: {fileID: 0}
  m_PrefabAsset: {fileID: 0}
  m_GameObject: {fileID: 110522196}
  m_Enabled: 1
  serializedVersion: 9
  m_Type: 1
  m_Color: {r: 1, g: 0.95686275, b: 0.8392157, a: 1}
  m_Intensity: 1
  m_Range: 10
  m_SpotAngle: 30
  m_InnerSpotAngle: 21.80208
  m_CookieSize: 10
  m_Shadows:
    m_Type: 2
    m_Resolution: -1
    m_CustomResolution: -1
    m_Strength: 1
    m_Bias: 0.05
    m_NormalBias: 0.4
    m_NearPlane: 0.2
    m_CullingMatrixOverride:
      e00: 1
      e01: 0
      e02: 0
      e03: 0
      e10: 0
      e11: 1
      e12: 0
      e13: 0
      e20: 0
      e21: 0
      e22: 1
      e23: 0
      e30: 0
      e31: 0
      e32: 0
      e33: 1
    m_UseCullingMatrixOverride: 0
  m_Cookie: {fileID: 0}
  m_DrawHalo: 0
  m_Flare: {fileID: 0}
  m_RenderMode: 0
  m_CullingMask:
    serializedVersion: 2
    m_Bits: 4294967295
  m_RenderingLayerMask: 1
  m_Lightmapping: 4
  m_LightShadowCasterMode: 0
  m_AreaSize: {x: 1, y: 1}
  m_BounceIntensity: 1
  m_ColorTemperature: 6570
  m_UseColorTemperature: 0
  m_BoundingSphereOverride: {x: 0, y: 0, z: 0, w: 0}
  m_UseBoundingSphereOverride: 0
  m_ShadowRadius: 0
  m_ShadowAngle: 0
--- !u!4 &110522198
Transform:
  m_ObjectHideFlags: 0
  m_CorrespondingSourceObject: {fileID: 0}
  m_PrefabInstance: {fileID: 0}
  m_PrefabAsset: {fileID: 0}
  m_GameObject: {fileID: 110522196}
  m_LocalRotation: {x: 0.40821788, y: -0.23456968, z: 0.10938163, w: 0.8754261}
  m_LocalPosition: {x: 0, y: 3, z: 0}
  m_LocalScale: {x: 1, y: 1, z: 1}
  m_Children: []
  m_Father: {fileID: 0}
  m_RootOrder: 1
  m_LocalEulerAnglesHint: {x: 50, y: -30, z: 0}
--- !u!1 &484906871
GameObject:
  m_ObjectHideFlags: 0
  m_CorrespondingSourceObject: {fileID: 0}
  m_PrefabInstance: {fileID: 0}
  m_PrefabAsset: {fileID: 0}
  serializedVersion: 6
  m_Component:
  - component: {fileID: 484906872}
  - component: {fileID: 484906873}
  m_Layer: 5
  m_Name: verticalLayout
  m_TagString: Untagged
  m_Icon: {fileID: 0}
  m_NavMeshLayer: 0
  m_StaticEditorFlags: 0
  m_IsActive: 1
--- !u!224 &484906872
RectTransform:
  m_ObjectHideFlags: 0
  m_CorrespondingSourceObject: {fileID: 0}
  m_PrefabInstance: {fileID: 0}
  m_PrefabAsset: {fileID: 0}
  m_GameObject: {fileID: 484906871}
  m_LocalRotation: {x: 0, y: 0, z: 0, w: 1}
  m_LocalPosition: {x: 0, y: 0, z: 0}
  m_LocalScale: {x: 1, y: 1, z: 1}
  m_Children:
  - {fileID: 6623332552280064859}
  - {fileID: 1134174376}
  - {fileID: 1133962971}
  m_Father: {fileID: 1276561367}
  m_RootOrder: 1
  m_LocalEulerAnglesHint: {x: 0, y: 0, z: 0}
  m_AnchorMin: {x: 0.5, y: 0.5}
  m_AnchorMax: {x: 0.5, y: 0.5}
  m_AnchoredPosition: {x: 0, y: 0}
  m_SizeDelta: {x: 500, y: 400}
  m_Pivot: {x: 0.5, y: 0.5}
--- !u!114 &484906873
MonoBehaviour:
  m_ObjectHideFlags: 0
  m_CorrespondingSourceObject: {fileID: 0}
  m_PrefabInstance: {fileID: 0}
  m_PrefabAsset: {fileID: 0}
  m_GameObject: {fileID: 484906871}
  m_Enabled: 1
  m_EditorHideFlags: 0
  m_Script: {fileID: 1297475563, guid: f70555f144d8491a825f0804e09c671c, type: 3}
  m_Name: 
  m_EditorClassIdentifier: 
  m_Padding:
    m_Left: 0
    m_Right: 0
    m_Top: 0
    m_Bottom: 0
  m_ChildAlignment: 4
  m_Spacing: 0
  m_ChildForceExpandWidth: 1
  m_ChildForceExpandHeight: 1
  m_ChildControlWidth: 0
  m_ChildControlHeight: 0
  m_ChildScaleWidth: 0
  m_ChildScaleHeight: 0
--- !u!1 &919283699
GameObject:
  m_ObjectHideFlags: 0
  m_CorrespondingSourceObject: {fileID: 0}
  m_PrefabInstance: {fileID: 0}
  m_PrefabAsset: {fileID: 0}
  serializedVersion: 6
  m_Component:
  - component: {fileID: 919283702}
  - component: {fileID: 919283701}
  - component: {fileID: 919283700}
  m_Layer: 0
  m_Name: EventSystem
  m_TagString: Untagged
  m_Icon: {fileID: 0}
  m_NavMeshLayer: 0
  m_StaticEditorFlags: 0
  m_IsActive: 1
--- !u!114 &919283700
MonoBehaviour:
  m_ObjectHideFlags: 0
  m_CorrespondingSourceObject: {fileID: 0}
  m_PrefabInstance: {fileID: 0}
  m_PrefabAsset: {fileID: 0}
  m_GameObject: {fileID: 919283699}
  m_Enabled: 1
  m_EditorHideFlags: 0
  m_Script: {fileID: 1077351063, guid: f70555f144d8491a825f0804e09c671c, type: 3}
  m_Name: 
  m_EditorClassIdentifier: 
  m_HorizontalAxis: Horizontal
  m_VerticalAxis: Vertical
  m_SubmitButton: Submit
  m_CancelButton: Cancel
  m_InputActionsPerSecond: 10
  m_RepeatDelay: 0.5
  m_ForceModuleActive: 0
--- !u!114 &919283701
MonoBehaviour:
  m_ObjectHideFlags: 0
  m_CorrespondingSourceObject: {fileID: 0}
  m_PrefabInstance: {fileID: 0}
  m_PrefabAsset: {fileID: 0}
  m_GameObject: {fileID: 919283699}
  m_Enabled: 1
  m_EditorHideFlags: 0
  m_Script: {fileID: -619905303, guid: f70555f144d8491a825f0804e09c671c, type: 3}
  m_Name: 
  m_EditorClassIdentifier: 
  m_FirstSelected: {fileID: 0}
  m_sendNavigationEvents: 1
  m_DragThreshold: 10
--- !u!4 &919283702
Transform:
  m_ObjectHideFlags: 0
  m_CorrespondingSourceObject: {fileID: 0}
  m_PrefabInstance: {fileID: 0}
  m_PrefabAsset: {fileID: 0}
  m_GameObject: {fileID: 919283699}
  m_LocalRotation: {x: 0, y: 0, z: 0, w: 1}
  m_LocalPosition: {x: 0, y: 0, z: 0}
  m_LocalScale: {x: 1, y: 1, z: 1}
  m_Children: []
  m_Father: {fileID: 0}
  m_RootOrder: 3
  m_LocalEulerAnglesHint: {x: 0, y: 0, z: 0}
--- !u!1001 &1133962970
PrefabInstance:
  m_ObjectHideFlags: 0
  serializedVersion: 2
  m_Modification:
    m_TransformParent: {fileID: 484906872}
    m_Modifications:
    - target: {fileID: 3377116355974810092, guid: 4cf38fb7c7758094cb15b5f30eaa0c43,
        type: 3}
      propertyPath: m_Name
      value: QuitButton
      objectReference: {fileID: 0}
    - target: {fileID: 2629932860691610354, guid: 4cf38fb7c7758094cb15b5f30eaa0c43,
        type: 3}
      propertyPath: m_LocalPosition.x
      value: 0
      objectReference: {fileID: 0}
    - target: {fileID: 2629932860691610354, guid: 4cf38fb7c7758094cb15b5f30eaa0c43,
        type: 3}
      propertyPath: m_LocalPosition.y
      value: 0
      objectReference: {fileID: 0}
    - target: {fileID: 2629932860691610354, guid: 4cf38fb7c7758094cb15b5f30eaa0c43,
        type: 3}
      propertyPath: m_LocalPosition.z
      value: 0
      objectReference: {fileID: 0}
    - target: {fileID: 2629932860691610354, guid: 4cf38fb7c7758094cb15b5f30eaa0c43,
        type: 3}
      propertyPath: m_LocalRotation.x
      value: 0
      objectReference: {fileID: 0}
    - target: {fileID: 2629932860691610354, guid: 4cf38fb7c7758094cb15b5f30eaa0c43,
        type: 3}
      propertyPath: m_LocalRotation.y
      value: 0
      objectReference: {fileID: 0}
    - target: {fileID: 2629932860691610354, guid: 4cf38fb7c7758094cb15b5f30eaa0c43,
        type: 3}
      propertyPath: m_LocalRotation.z
      value: 0
      objectReference: {fileID: 0}
    - target: {fileID: 2629932860691610354, guid: 4cf38fb7c7758094cb15b5f30eaa0c43,
        type: 3}
      propertyPath: m_LocalRotation.w
      value: 1
      objectReference: {fileID: 0}
    - target: {fileID: 2629932860691610354, guid: 4cf38fb7c7758094cb15b5f30eaa0c43,
        type: 3}
      propertyPath: m_RootOrder
      value: 2
      objectReference: {fileID: 0}
    - target: {fileID: 2629932860691610354, guid: 4cf38fb7c7758094cb15b5f30eaa0c43,
        type: 3}
      propertyPath: m_LocalEulerAnglesHint.x
      value: 0
      objectReference: {fileID: 0}
    - target: {fileID: 2629932860691610354, guid: 4cf38fb7c7758094cb15b5f30eaa0c43,
        type: 3}
      propertyPath: m_LocalEulerAnglesHint.y
      value: 0
      objectReference: {fileID: 0}
    - target: {fileID: 2629932860691610354, guid: 4cf38fb7c7758094cb15b5f30eaa0c43,
        type: 3}
      propertyPath: m_LocalEulerAnglesHint.z
      value: 0
      objectReference: {fileID: 0}
    - target: {fileID: 2629932860691610354, guid: 4cf38fb7c7758094cb15b5f30eaa0c43,
        type: 3}
      propertyPath: m_AnchoredPosition.x
      value: 0
      objectReference: {fileID: 0}
    - target: {fileID: 2629932860691610354, guid: 4cf38fb7c7758094cb15b5f30eaa0c43,
        type: 3}
      propertyPath: m_AnchoredPosition.y
      value: 0
      objectReference: {fileID: 0}
    - target: {fileID: 2629932860691610354, guid: 4cf38fb7c7758094cb15b5f30eaa0c43,
        type: 3}
      propertyPath: m_SizeDelta.x
      value: 250
      objectReference: {fileID: 0}
    - target: {fileID: 2629932860691610354, guid: 4cf38fb7c7758094cb15b5f30eaa0c43,
        type: 3}
      propertyPath: m_SizeDelta.y
      value: 75
      objectReference: {fileID: 0}
    - target: {fileID: 2629932860691610354, guid: 4cf38fb7c7758094cb15b5f30eaa0c43,
        type: 3}
      propertyPath: m_AnchorMin.x
      value: 0
      objectReference: {fileID: 0}
    - target: {fileID: 2629932860691610354, guid: 4cf38fb7c7758094cb15b5f30eaa0c43,
        type: 3}
      propertyPath: m_AnchorMin.y
      value: 0
      objectReference: {fileID: 0}
    - target: {fileID: 2629932860691610354, guid: 4cf38fb7c7758094cb15b5f30eaa0c43,
        type: 3}
      propertyPath: m_AnchorMax.x
      value: 0
      objectReference: {fileID: 0}
    - target: {fileID: 2629932860691610354, guid: 4cf38fb7c7758094cb15b5f30eaa0c43,
        type: 3}
      propertyPath: m_AnchorMax.y
      value: 0
      objectReference: {fileID: 0}
    - target: {fileID: 2629932860691610354, guid: 4cf38fb7c7758094cb15b5f30eaa0c43,
        type: 3}
      propertyPath: m_Pivot.x
      value: 0.5
      objectReference: {fileID: 0}
    - target: {fileID: 2629932860691610354, guid: 4cf38fb7c7758094cb15b5f30eaa0c43,
        type: 3}
      propertyPath: m_Pivot.y
      value: 0.5
      objectReference: {fileID: 0}
    - target: {fileID: 3390386500489682038, guid: 4cf38fb7c7758094cb15b5f30eaa0c43,
        type: 3}
      propertyPath: m_Color.g
      value: 0.2783019
      objectReference: {fileID: 0}
    - target: {fileID: 3390386500489682038, guid: 4cf38fb7c7758094cb15b5f30eaa0c43,
        type: 3}
      propertyPath: m_Color.b
      value: 0.2899322
      objectReference: {fileID: 0}
    - target: {fileID: 3390386500489682038, guid: 4cf38fb7c7758094cb15b5f30eaa0c43,
        type: 3}
      propertyPath: m_Color.r
      value: 1
      objectReference: {fileID: 0}
    - target: {fileID: 6809807372448512244, guid: 4cf38fb7c7758094cb15b5f30eaa0c43,
        type: 3}
      propertyPath: m_textInfo.characterCount
      value: 5
      objectReference: {fileID: 0}
    - target: {fileID: 6809807372448512244, guid: 4cf38fb7c7758094cb15b5f30eaa0c43,
        type: 3}
      propertyPath: m_textInfo.wordCount
      value: 1
      objectReference: {fileID: 0}
    - target: {fileID: 6809807372448512244, guid: 4cf38fb7c7758094cb15b5f30eaa0c43,
        type: 3}
      propertyPath: m_textInfo.lineCount
      value: 1
      objectReference: {fileID: 0}
    - target: {fileID: 6809807372448512244, guid: 4cf38fb7c7758094cb15b5f30eaa0c43,
        type: 3}
      propertyPath: m_textInfo.pageCount
      value: 1
      objectReference: {fileID: 0}
    - target: {fileID: 6809807372448512244, guid: 4cf38fb7c7758094cb15b5f30eaa0c43,
        type: 3}
      propertyPath: m_text
      value: 'Quit

'
      objectReference: {fileID: 0}
    - target: {fileID: 6809807372448512244, guid: 4cf38fb7c7758094cb15b5f30eaa0c43,
        type: 3}
      propertyPath: m_textInfo.spaceCount
      value: 1
      objectReference: {fileID: 0}
    - target: {fileID: 7123331991212427440, guid: 4cf38fb7c7758094cb15b5f30eaa0c43,
        type: 3}
      propertyPath: m_OnClick.m_PersistentCalls.m_Calls.Array.size
      value: 1
      objectReference: {fileID: 0}
    - target: {fileID: 7123331991212427440, guid: 4cf38fb7c7758094cb15b5f30eaa0c43,
        type: 3}
      propertyPath: m_OnClick.m_PersistentCalls.m_Calls.Array.data[0].m_Mode
      value: 1
      objectReference: {fileID: 0}
    - target: {fileID: 7123331991212427440, guid: 4cf38fb7c7758094cb15b5f30eaa0c43,
        type: 3}
      propertyPath: m_OnClick.m_PersistentCalls.m_Calls.Array.data[0].m_CallState
      value: 2
      objectReference: {fileID: 0}
    - target: {fileID: 7123331991212427440, guid: 4cf38fb7c7758094cb15b5f30eaa0c43,
        type: 3}
      propertyPath: m_OnClick.m_PersistentCalls.m_Calls.Array.data[0].m_Target
      value: 
      objectReference: {fileID: 1276561368}
    - target: {fileID: 7123331991212427440, guid: 4cf38fb7c7758094cb15b5f30eaa0c43,
        type: 3}
      propertyPath: m_OnClick.m_PersistentCalls.m_Calls.Array.data[0].m_MethodName
      value: Quit
      objectReference: {fileID: 0}
    - target: {fileID: 7123331991212427440, guid: 4cf38fb7c7758094cb15b5f30eaa0c43,
        type: 3}
      propertyPath: m_OnClick.m_PersistentCalls.m_Calls.Array.data[0].m_Arguments.m_ObjectArgumentAssemblyTypeName
      value: UnityEngine.Object, UnityEngine
      objectReference: {fileID: 0}
    - target: {fileID: 7123331991212427440, guid: 4cf38fb7c7758094cb15b5f30eaa0c43,
        type: 3}
      propertyPath: m_Colors.m_HighlightedColor.r
      value: 0.65
      objectReference: {fileID: 0}
    - target: {fileID: 7123331991212427440, guid: 4cf38fb7c7758094cb15b5f30eaa0c43,
        type: 3}
      propertyPath: m_Colors.m_HighlightedColor.g
      value: 0.65
      objectReference: {fileID: 0}
    - target: {fileID: 7123331991212427440, guid: 4cf38fb7c7758094cb15b5f30eaa0c43,
        type: 3}
      propertyPath: m_Colors.m_HighlightedColor.b
      value: 0.65
      objectReference: {fileID: 0}
    - target: {fileID: 7123331991212427440, guid: 4cf38fb7c7758094cb15b5f30eaa0c43,
        type: 3}
      propertyPath: m_Colors.m_PressedColor.r
      value: 0.5
      objectReference: {fileID: 0}
    - target: {fileID: 7123331991212427440, guid: 4cf38fb7c7758094cb15b5f30eaa0c43,
        type: 3}
      propertyPath: m_Colors.m_PressedColor.g
      value: 0.5
      objectReference: {fileID: 0}
    - target: {fileID: 7123331991212427440, guid: 4cf38fb7c7758094cb15b5f30eaa0c43,
        type: 3}
      propertyPath: m_Colors.m_PressedColor.b
      value: 0.5
      objectReference: {fileID: 0}
    m_RemovedComponents: []
  m_SourcePrefab: {fileID: 100100000, guid: 4cf38fb7c7758094cb15b5f30eaa0c43, type: 3}
--- !u!224 &1133962971 stripped
RectTransform:
  m_CorrespondingSourceObject: {fileID: 2629932860691610354, guid: 4cf38fb7c7758094cb15b5f30eaa0c43,
    type: 3}
  m_PrefabInstance: {fileID: 1133962970}
  m_PrefabAsset: {fileID: 0}
--- !u!1001 &1134174375
PrefabInstance:
  m_ObjectHideFlags: 0
  serializedVersion: 2
  m_Modification:
    m_TransformParent: {fileID: 484906872}
    m_Modifications:
    - target: {fileID: 3377116355974810092, guid: 4cf38fb7c7758094cb15b5f30eaa0c43,
        type: 3}
      propertyPath: m_Name
      value: SettingsButton
      objectReference: {fileID: 0}
    - target: {fileID: 2629932860691610354, guid: 4cf38fb7c7758094cb15b5f30eaa0c43,
        type: 3}
      propertyPath: m_LocalPosition.x
      value: 0
      objectReference: {fileID: 0}
    - target: {fileID: 2629932860691610354, guid: 4cf38fb7c7758094cb15b5f30eaa0c43,
        type: 3}
      propertyPath: m_LocalPosition.y
      value: 0
      objectReference: {fileID: 0}
    - target: {fileID: 2629932860691610354, guid: 4cf38fb7c7758094cb15b5f30eaa0c43,
        type: 3}
      propertyPath: m_LocalPosition.z
      value: 0
      objectReference: {fileID: 0}
    - target: {fileID: 2629932860691610354, guid: 4cf38fb7c7758094cb15b5f30eaa0c43,
        type: 3}
      propertyPath: m_LocalRotation.x
      value: 0
      objectReference: {fileID: 0}
    - target: {fileID: 2629932860691610354, guid: 4cf38fb7c7758094cb15b5f30eaa0c43,
        type: 3}
      propertyPath: m_LocalRotation.y
      value: 0
      objectReference: {fileID: 0}
    - target: {fileID: 2629932860691610354, guid: 4cf38fb7c7758094cb15b5f30eaa0c43,
        type: 3}
      propertyPath: m_LocalRotation.z
      value: 0
      objectReference: {fileID: 0}
    - target: {fileID: 2629932860691610354, guid: 4cf38fb7c7758094cb15b5f30eaa0c43,
        type: 3}
      propertyPath: m_LocalRotation.w
      value: 1
      objectReference: {fileID: 0}
    - target: {fileID: 2629932860691610354, guid: 4cf38fb7c7758094cb15b5f30eaa0c43,
        type: 3}
      propertyPath: m_RootOrder
      value: 1
      objectReference: {fileID: 0}
    - target: {fileID: 2629932860691610354, guid: 4cf38fb7c7758094cb15b5f30eaa0c43,
        type: 3}
      propertyPath: m_LocalEulerAnglesHint.x
      value: 0
      objectReference: {fileID: 0}
    - target: {fileID: 2629932860691610354, guid: 4cf38fb7c7758094cb15b5f30eaa0c43,
        type: 3}
      propertyPath: m_LocalEulerAnglesHint.y
      value: 0
      objectReference: {fileID: 0}
    - target: {fileID: 2629932860691610354, guid: 4cf38fb7c7758094cb15b5f30eaa0c43,
        type: 3}
      propertyPath: m_LocalEulerAnglesHint.z
      value: 0
      objectReference: {fileID: 0}
    - target: {fileID: 2629932860691610354, guid: 4cf38fb7c7758094cb15b5f30eaa0c43,
        type: 3}
      propertyPath: m_AnchoredPosition.x
      value: 0
      objectReference: {fileID: 0}
    - target: {fileID: 2629932860691610354, guid: 4cf38fb7c7758094cb15b5f30eaa0c43,
        type: 3}
      propertyPath: m_AnchoredPosition.y
      value: 0
      objectReference: {fileID: 0}
    - target: {fileID: 2629932860691610354, guid: 4cf38fb7c7758094cb15b5f30eaa0c43,
        type: 3}
      propertyPath: m_SizeDelta.x
      value: 250
      objectReference: {fileID: 0}
    - target: {fileID: 2629932860691610354, guid: 4cf38fb7c7758094cb15b5f30eaa0c43,
        type: 3}
      propertyPath: m_SizeDelta.y
      value: 75
      objectReference: {fileID: 0}
    - target: {fileID: 2629932860691610354, guid: 4cf38fb7c7758094cb15b5f30eaa0c43,
        type: 3}
      propertyPath: m_AnchorMin.x
      value: 0
      objectReference: {fileID: 0}
    - target: {fileID: 2629932860691610354, guid: 4cf38fb7c7758094cb15b5f30eaa0c43,
        type: 3}
      propertyPath: m_AnchorMin.y
      value: 0
      objectReference: {fileID: 0}
    - target: {fileID: 2629932860691610354, guid: 4cf38fb7c7758094cb15b5f30eaa0c43,
        type: 3}
      propertyPath: m_AnchorMax.x
      value: 0
      objectReference: {fileID: 0}
    - target: {fileID: 2629932860691610354, guid: 4cf38fb7c7758094cb15b5f30eaa0c43,
        type: 3}
      propertyPath: m_AnchorMax.y
      value: 0
      objectReference: {fileID: 0}
    - target: {fileID: 2629932860691610354, guid: 4cf38fb7c7758094cb15b5f30eaa0c43,
        type: 3}
      propertyPath: m_Pivot.x
      value: 0.5
      objectReference: {fileID: 0}
    - target: {fileID: 2629932860691610354, guid: 4cf38fb7c7758094cb15b5f30eaa0c43,
        type: 3}
      propertyPath: m_Pivot.y
      value: 0.5
      objectReference: {fileID: 0}
    - target: {fileID: 3390386500489682038, guid: 4cf38fb7c7758094cb15b5f30eaa0c43,
        type: 3}
      propertyPath: m_Color.g
      value: 0.70391876
      objectReference: {fileID: 0}
    - target: {fileID: 3390386500489682038, guid: 4cf38fb7c7758094cb15b5f30eaa0c43,
        type: 3}
      propertyPath: m_Color.b
      value: 0.2783019
      objectReference: {fileID: 0}
    - target: {fileID: 3390386500489682038, guid: 4cf38fb7c7758094cb15b5f30eaa0c43,
        type: 3}
      propertyPath: m_Color.r
      value: 1
      objectReference: {fileID: 0}
    - target: {fileID: 6809807372448512244, guid: 4cf38fb7c7758094cb15b5f30eaa0c43,
        type: 3}
      propertyPath: m_textInfo.characterCount
      value: 8
      objectReference: {fileID: 0}
    - target: {fileID: 6809807372448512244, guid: 4cf38fb7c7758094cb15b5f30eaa0c43,
        type: 3}
      propertyPath: m_textInfo.wordCount
      value: 1
      objectReference: {fileID: 0}
    - target: {fileID: 6809807372448512244, guid: 4cf38fb7c7758094cb15b5f30eaa0c43,
        type: 3}
      propertyPath: m_textInfo.lineCount
      value: 1
      objectReference: {fileID: 0}
    - target: {fileID: 6809807372448512244, guid: 4cf38fb7c7758094cb15b5f30eaa0c43,
        type: 3}
      propertyPath: m_textInfo.pageCount
      value: 1
      objectReference: {fileID: 0}
    - target: {fileID: 6809807372448512244, guid: 4cf38fb7c7758094cb15b5f30eaa0c43,
        type: 3}
      propertyPath: m_text
      value: Settings
      objectReference: {fileID: 0}
    - target: {fileID: 7123331991212427440, guid: 4cf38fb7c7758094cb15b5f30eaa0c43,
        type: 3}
      propertyPath: m_Colors.m_HighlightedColor.r
      value: 0.65
      objectReference: {fileID: 0}
    - target: {fileID: 7123331991212427440, guid: 4cf38fb7c7758094cb15b5f30eaa0c43,
        type: 3}
      propertyPath: m_Colors.m_HighlightedColor.g
      value: 0.65
      objectReference: {fileID: 0}
    - target: {fileID: 7123331991212427440, guid: 4cf38fb7c7758094cb15b5f30eaa0c43,
        type: 3}
      propertyPath: m_Colors.m_HighlightedColor.b
      value: 0.65
      objectReference: {fileID: 0}
    - target: {fileID: 7123331991212427440, guid: 4cf38fb7c7758094cb15b5f30eaa0c43,
        type: 3}
      propertyPath: m_Colors.m_PressedColor.r
      value: 0.5
      objectReference: {fileID: 0}
    - target: {fileID: 7123331991212427440, guid: 4cf38fb7c7758094cb15b5f30eaa0c43,
        type: 3}
      propertyPath: m_Colors.m_PressedColor.g
      value: 0.5
      objectReference: {fileID: 0}
    - target: {fileID: 7123331991212427440, guid: 4cf38fb7c7758094cb15b5f30eaa0c43,
        type: 3}
      propertyPath: m_Colors.m_PressedColor.b
      value: 0.5
      objectReference: {fileID: 0}
    m_RemovedComponents: []
  m_SourcePrefab: {fileID: 100100000, guid: 4cf38fb7c7758094cb15b5f30eaa0c43, type: 3}
--- !u!224 &1134174376 stripped
RectTransform:
  m_CorrespondingSourceObject: {fileID: 2629932860691610354, guid: 4cf38fb7c7758094cb15b5f30eaa0c43,
    type: 3}
  m_PrefabInstance: {fileID: 1134174375}
  m_PrefabAsset: {fileID: 0}
--- !u!1 &1144038436
GameObject:
  m_ObjectHideFlags: 0
  m_CorrespondingSourceObject: {fileID: 0}
  m_PrefabInstance: {fileID: 0}
  m_PrefabAsset: {fileID: 0}
  serializedVersion: 6
  m_Component:
  - component: {fileID: 1144038439}
  - component: {fileID: 1144038438}
  - component: {fileID: 1144038437}
  m_Layer: 0
  m_Name: Main Camera
  m_TagString: MainCamera
  m_Icon: {fileID: 0}
  m_NavMeshLayer: 0
  m_StaticEditorFlags: 0
  m_IsActive: 1
--- !u!81 &1144038437
AudioListener:
  m_ObjectHideFlags: 0
  m_CorrespondingSourceObject: {fileID: 0}
  m_PrefabInstance: {fileID: 0}
  m_PrefabAsset: {fileID: 0}
  m_GameObject: {fileID: 1144038436}
  m_Enabled: 1
--- !u!20 &1144038438
Camera:
  m_ObjectHideFlags: 0
  m_CorrespondingSourceObject: {fileID: 0}
  m_PrefabInstance: {fileID: 0}
  m_PrefabAsset: {fileID: 0}
  m_GameObject: {fileID: 1144038436}
  m_Enabled: 1
  serializedVersion: 2
  m_ClearFlags: 1
  m_BackGroundColor: {r: 0.19215687, g: 0.3019608, b: 0.4745098, a: 0}
  m_projectionMatrixMode: 1
  m_GateFitMode: 2
  m_FOVAxisMode: 0
  m_SensorSize: {x: 36, y: 24}
  m_LensShift: {x: 0, y: 0}
  m_FocalLength: 50
  m_NormalizedViewPortRect:
    serializedVersion: 2
    x: 0
    y: 0
    width: 1
    height: 1
  near clip plane: 0.3
  far clip plane: 1000
  field of view: 60
  orthographic: 0
  orthographic size: 5
  m_Depth: -1
  m_CullingMask:
    serializedVersion: 2
    m_Bits: 4294967295
  m_RenderingPath: -1
  m_TargetTexture: {fileID: 0}
  m_TargetDisplay: 0
  m_TargetEye: 3
  m_HDR: 1
  m_AllowMSAA: 1
  m_AllowDynamicResolution: 0
  m_ForceIntoRT: 0
  m_OcclusionCulling: 1
  m_StereoConvergence: 10
  m_StereoSeparation: 0.022
--- !u!4 &1144038439
Transform:
  m_ObjectHideFlags: 0
  m_CorrespondingSourceObject: {fileID: 0}
  m_PrefabInstance: {fileID: 0}
  m_PrefabAsset: {fileID: 0}
  m_GameObject: {fileID: 1144038436}
  m_LocalRotation: {x: 0, y: 0, z: 0, w: 1}
  m_LocalPosition: {x: 0, y: 1, z: -10}
  m_LocalScale: {x: 1, y: 1, z: 1}
  m_Children: []
  m_Father: {fileID: 0}
  m_RootOrder: 0
  m_LocalEulerAnglesHint: {x: 0, y: 0, z: 0}
--- !u!1 &1276561363
GameObject:
  m_ObjectHideFlags: 0
  m_CorrespondingSourceObject: {fileID: 0}
  m_PrefabInstance: {fileID: 0}
  m_PrefabAsset: {fileID: 0}
  serializedVersion: 6
  m_Component:
  - component: {fileID: 1276561367}
  - component: {fileID: 1276561366}
  - component: {fileID: 1276561365}
  - component: {fileID: 1276561364}
  - component: {fileID: 1276561368}
  m_Layer: 5
  m_Name: Canvas
  m_TagString: Untagged
  m_Icon: {fileID: 0}
  m_NavMeshLayer: 0
  m_StaticEditorFlags: 0
  m_IsActive: 1
--- !u!114 &1276561364
MonoBehaviour:
  m_ObjectHideFlags: 0
  m_CorrespondingSourceObject: {fileID: 0}
  m_PrefabInstance: {fileID: 0}
  m_PrefabAsset: {fileID: 0}
  m_GameObject: {fileID: 1276561363}
  m_Enabled: 1
  m_EditorHideFlags: 0
  m_Script: {fileID: 1301386320, guid: f70555f144d8491a825f0804e09c671c, type: 3}
  m_Name: 
  m_EditorClassIdentifier: 
  m_IgnoreReversedGraphics: 1
  m_BlockingObjects: 0
  m_BlockingMask:
    serializedVersion: 2
    m_Bits: 4294967295
--- !u!114 &1276561365
MonoBehaviour:
  m_ObjectHideFlags: 0
  m_CorrespondingSourceObject: {fileID: 0}
  m_PrefabInstance: {fileID: 0}
  m_PrefabAsset: {fileID: 0}
  m_GameObject: {fileID: 1276561363}
  m_Enabled: 1
  m_EditorHideFlags: 0
  m_Script: {fileID: 1980459831, guid: f70555f144d8491a825f0804e09c671c, type: 3}
  m_Name: 
  m_EditorClassIdentifier: 
  m_UiScaleMode: 0
  m_ReferencePixelsPerUnit: 100
  m_ScaleFactor: 1
  m_ReferenceResolution: {x: 800, y: 600}
  m_ScreenMatchMode: 0
  m_MatchWidthOrHeight: 0
  m_PhysicalUnit: 3
  m_FallbackScreenDPI: 96
  m_DefaultSpriteDPI: 96
  m_DynamicPixelsPerUnit: 1
--- !u!223 &1276561366
Canvas:
  m_ObjectHideFlags: 0
  m_CorrespondingSourceObject: {fileID: 0}
  m_PrefabInstance: {fileID: 0}
  m_PrefabAsset: {fileID: 0}
  m_GameObject: {fileID: 1276561363}
  m_Enabled: 1
  serializedVersion: 3
  m_RenderMode: 0
  m_Camera: {fileID: 0}
  m_PlaneDistance: 100
  m_PixelPerfect: 0
  m_ReceivesEvents: 1
  m_OverrideSorting: 0
  m_OverridePixelPerfect: 0
  m_SortingBucketNormalizedSize: 0
  m_AdditionalShaderChannelsFlag: 25
  m_SortingLayerID: 0
  m_SortingOrder: 0
  m_TargetDisplay: 0
--- !u!224 &1276561367
RectTransform:
  m_ObjectHideFlags: 0
  m_CorrespondingSourceObject: {fileID: 0}
  m_PrefabInstance: {fileID: 0}
  m_PrefabAsset: {fileID: 0}
  m_GameObject: {fileID: 1276561363}
  m_LocalRotation: {x: 0, y: 0, z: 0, w: 1}
  m_LocalPosition: {x: 0, y: 0, z: 0}
  m_LocalScale: {x: 0, y: 0, z: 0}
  m_Children:
  - {fileID: 1651967360}
  - {fileID: 484906872}
  m_Father: {fileID: 0}
  m_RootOrder: 2
  m_LocalEulerAnglesHint: {x: 0, y: 0, z: 0}
  m_AnchorMin: {x: 0, y: 0}
  m_AnchorMax: {x: 0, y: 0}
  m_AnchoredPosition: {x: 0, y: 0}
  m_SizeDelta: {x: 0, y: 0}
  m_Pivot: {x: 0, y: 0}
--- !u!114 &1276561368
MonoBehaviour:
  m_ObjectHideFlags: 0
  m_CorrespondingSourceObject: {fileID: 0}
  m_PrefabInstance: {fileID: 0}
  m_PrefabAsset: {fileID: 0}
  m_GameObject: {fileID: 1276561363}
  m_Enabled: 1
  m_EditorHideFlags: 0
  m_Script: {fileID: 11500000, guid: 8784d8dc70f92dc408926eae0226d1ec, type: 3}
  m_Name: 
  m_EditorClassIdentifier: 
--- !u!1 &1651967359
GameObject:
  m_ObjectHideFlags: 0
  m_CorrespondingSourceObject: {fileID: 0}
  m_PrefabInstance: {fileID: 0}
  m_PrefabAsset: {fileID: 0}
  serializedVersion: 6
  m_Component:
  - component: {fileID: 1651967360}
  - component: {fileID: 1651967362}
  - component: {fileID: 1651967361}
  m_Layer: 5
  m_Name: background
  m_TagString: Untagged
  m_Icon: {fileID: 0}
  m_NavMeshLayer: 0
  m_StaticEditorFlags: 0
  m_IsActive: 1
--- !u!224 &1651967360
RectTransform:
  m_ObjectHideFlags: 0
  m_CorrespondingSourceObject: {fileID: 0}
  m_PrefabInstance: {fileID: 0}
  m_PrefabAsset: {fileID: 0}
  m_GameObject: {fileID: 1651967359}
  m_LocalRotation: {x: 0, y: 0, z: 0, w: 1}
  m_LocalPosition: {x: 0, y: 0, z: 0}
  m_LocalScale: {x: 1, y: 1, z: 1}
  m_Children: []
  m_Father: {fileID: 1276561367}
  m_RootOrder: 0
  m_LocalEulerAnglesHint: {x: 0, y: 0, z: 0}
  m_AnchorMin: {x: 0, y: 0}
  m_AnchorMax: {x: 1, y: 1}
  m_AnchoredPosition: {x: 0, y: 0}
  m_SizeDelta: {x: 0, y: 0}
  m_Pivot: {x: 0.5, y: 0.5}
--- !u!114 &1651967361
MonoBehaviour:
  m_ObjectHideFlags: 0
  m_CorrespondingSourceObject: {fileID: 0}
  m_PrefabInstance: {fileID: 0}
  m_PrefabAsset: {fileID: 0}
  m_GameObject: {fileID: 1651967359}
  m_Enabled: 1
  m_EditorHideFlags: 0
  m_Script: {fileID: -765806418, guid: f70555f144d8491a825f0804e09c671c, type: 3}
  m_Name: 
  m_EditorClassIdentifier: 
  m_Material: {fileID: 0}
  m_Color: {r: 1, g: 1, b: 1, a: 1}
  m_RaycastTarget: 1
  m_OnCullStateChanged:
    m_PersistentCalls:
      m_Calls: []
    m_TypeName: UnityEngine.UI.MaskableGraphic+CullStateChangedEvent, UnityEngine.UI,
      Version=1.0.0.0, Culture=neutral, PublicKeyToken=null
  m_Sprite: {fileID: 21300000, guid: 87553d2deab77c54fb758af52f29c565, type: 3}
  m_Type: 0
  m_PreserveAspect: 0
  m_FillCenter: 1
  m_FillMethod: 4
  m_FillAmount: 1
  m_FillClockwise: 1
  m_FillOrigin: 0
  m_UseSpriteMesh: 0
--- !u!222 &1651967362
CanvasRenderer:
  m_ObjectHideFlags: 0
  m_CorrespondingSourceObject: {fileID: 0}
  m_PrefabInstance: {fileID: 0}
  m_PrefabAsset: {fileID: 0}
  m_GameObject: {fileID: 1651967359}
  m_CullTransparentMesh: 0
--- !u!1001 &6623332552280064858
PrefabInstance:
  m_ObjectHideFlags: 0
  serializedVersion: 2
  m_Modification:
    m_TransformParent: {fileID: 484906872}
    m_Modifications:
    - target: {fileID: 3377116355974810092, guid: 4cf38fb7c7758094cb15b5f30eaa0c43,
        type: 3}
      propertyPath: m_Name
      value: PlayButton
      objectReference: {fileID: 0}
    - target: {fileID: 2629932860691610354, guid: 4cf38fb7c7758094cb15b5f30eaa0c43,
        type: 3}
      propertyPath: m_LocalPosition.x
      value: 0
      objectReference: {fileID: 0}
    - target: {fileID: 2629932860691610354, guid: 4cf38fb7c7758094cb15b5f30eaa0c43,
        type: 3}
      propertyPath: m_LocalPosition.y
      value: 0
      objectReference: {fileID: 0}
    - target: {fileID: 2629932860691610354, guid: 4cf38fb7c7758094cb15b5f30eaa0c43,
        type: 3}
      propertyPath: m_LocalPosition.z
      value: 0
      objectReference: {fileID: 0}
    - target: {fileID: 2629932860691610354, guid: 4cf38fb7c7758094cb15b5f30eaa0c43,
        type: 3}
      propertyPath: m_LocalRotation.x
      value: 0
      objectReference: {fileID: 0}
    - target: {fileID: 2629932860691610354, guid: 4cf38fb7c7758094cb15b5f30eaa0c43,
        type: 3}
      propertyPath: m_LocalRotation.y
      value: 0
      objectReference: {fileID: 0}
    - target: {fileID: 2629932860691610354, guid: 4cf38fb7c7758094cb15b5f30eaa0c43,
        type: 3}
      propertyPath: m_LocalRotation.z
      value: 0
      objectReference: {fileID: 0}
    - target: {fileID: 2629932860691610354, guid: 4cf38fb7c7758094cb15b5f30eaa0c43,
        type: 3}
      propertyPath: m_LocalRotation.w
      value: 1
      objectReference: {fileID: 0}
    - target: {fileID: 2629932860691610354, guid: 4cf38fb7c7758094cb15b5f30eaa0c43,
        type: 3}
      propertyPath: m_RootOrder
      value: 0
      objectReference: {fileID: 0}
    - target: {fileID: 2629932860691610354, guid: 4cf38fb7c7758094cb15b5f30eaa0c43,
        type: 3}
      propertyPath: m_LocalEulerAnglesHint.x
      value: 0
      objectReference: {fileID: 0}
    - target: {fileID: 2629932860691610354, guid: 4cf38fb7c7758094cb15b5f30eaa0c43,
        type: 3}
      propertyPath: m_LocalEulerAnglesHint.y
      value: 0
      objectReference: {fileID: 0}
    - target: {fileID: 2629932860691610354, guid: 4cf38fb7c7758094cb15b5f30eaa0c43,
        type: 3}
      propertyPath: m_LocalEulerAnglesHint.z
      value: 0
      objectReference: {fileID: 0}
    - target: {fileID: 2629932860691610354, guid: 4cf38fb7c7758094cb15b5f30eaa0c43,
        type: 3}
      propertyPath: m_AnchoredPosition.x
      value: 0
      objectReference: {fileID: 0}
    - target: {fileID: 2629932860691610354, guid: 4cf38fb7c7758094cb15b5f30eaa0c43,
        type: 3}
      propertyPath: m_AnchoredPosition.y
      value: 0
      objectReference: {fileID: 0}
    - target: {fileID: 2629932860691610354, guid: 4cf38fb7c7758094cb15b5f30eaa0c43,
        type: 3}
      propertyPath: m_SizeDelta.x
      value: 250
      objectReference: {fileID: 0}
    - target: {fileID: 2629932860691610354, guid: 4cf38fb7c7758094cb15b5f30eaa0c43,
        type: 3}
      propertyPath: m_SizeDelta.y
      value: 75
      objectReference: {fileID: 0}
    - target: {fileID: 2629932860691610354, guid: 4cf38fb7c7758094cb15b5f30eaa0c43,
        type: 3}
      propertyPath: m_AnchorMin.x
      value: 0
      objectReference: {fileID: 0}
    - target: {fileID: 2629932860691610354, guid: 4cf38fb7c7758094cb15b5f30eaa0c43,
        type: 3}
      propertyPath: m_AnchorMin.y
      value: 0
      objectReference: {fileID: 0}
    - target: {fileID: 2629932860691610354, guid: 4cf38fb7c7758094cb15b5f30eaa0c43,
        type: 3}
      propertyPath: m_AnchorMax.x
      value: 0
      objectReference: {fileID: 0}
    - target: {fileID: 2629932860691610354, guid: 4cf38fb7c7758094cb15b5f30eaa0c43,
        type: 3}
      propertyPath: m_AnchorMax.y
      value: 0
      objectReference: {fileID: 0}
    - target: {fileID: 2629932860691610354, guid: 4cf38fb7c7758094cb15b5f30eaa0c43,
        type: 3}
      propertyPath: m_Pivot.x
      value: 0.5
      objectReference: {fileID: 0}
    - target: {fileID: 2629932860691610354, guid: 4cf38fb7c7758094cb15b5f30eaa0c43,
        type: 3}
      propertyPath: m_Pivot.y
      value: 0.5
      objectReference: {fileID: 0}
    - target: {fileID: 3390386500489682038, guid: 4cf38fb7c7758094cb15b5f30eaa0c43,
        type: 3}
      propertyPath: m_Color.g
      value: 0.96444124
      objectReference: {fileID: 0}
    - target: {fileID: 3390386500489682038, guid: 4cf38fb7c7758094cb15b5f30eaa0c43,
        type: 3}
      propertyPath: m_Color.b
      value: 0.3066038
      objectReference: {fileID: 0}
    - target: {fileID: 3390386500489682038, guid: 4cf38fb7c7758094cb15b5f30eaa0c43,
        type: 3}
      propertyPath: m_Color.r
      value: 1
      objectReference: {fileID: 0}
    - target: {fileID: 7123331991212427440, guid: 4cf38fb7c7758094cb15b5f30eaa0c43,
        type: 3}
      propertyPath: m_OnClick.m_PersistentCalls.m_Calls.Array.size
      value: 1
      objectReference: {fileID: 0}
    - target: {fileID: 7123331991212427440, guid: 4cf38fb7c7758094cb15b5f30eaa0c43,
        type: 3}
      propertyPath: m_OnClick.m_PersistentCalls.m_Calls.Array.data[0].m_Mode
      value: 1
      objectReference: {fileID: 0}
    - target: {fileID: 7123331991212427440, guid: 4cf38fb7c7758094cb15b5f30eaa0c43,
        type: 3}
      propertyPath: m_OnClick.m_PersistentCalls.m_Calls.Array.data[0].m_CallState
      value: 2
      objectReference: {fileID: 0}
    - target: {fileID: 7123331991212427440, guid: 4cf38fb7c7758094cb15b5f30eaa0c43,
        type: 3}
      propertyPath: m_OnClick.m_PersistentCalls.m_Calls.Array.data[0].m_Target
      value: 
      objectReference: {fileID: 1276561368}
    - target: {fileID: 7123331991212427440, guid: 4cf38fb7c7758094cb15b5f30eaa0c43,
        type: 3}
      propertyPath: m_OnClick.m_PersistentCalls.m_Calls.Array.data[0].m_MethodName
      value: Play
      objectReference: {fileID: 0}
    - target: {fileID: 7123331991212427440, guid: 4cf38fb7c7758094cb15b5f30eaa0c43,
        type: 3}
      propertyPath: m_OnClick.m_PersistentCalls.m_Calls.Array.data[0].m_Arguments.m_ObjectArgumentAssemblyTypeName
      value: UnityEngine.Object, UnityEngine
      objectReference: {fileID: 0}
    - target: {fileID: 7123331991212427440, guid: 4cf38fb7c7758094cb15b5f30eaa0c43,
        type: 3}
      propertyPath: m_Colors.m_HighlightedColor.r
      value: 0.65
      objectReference: {fileID: 0}
    - target: {fileID: 7123331991212427440, guid: 4cf38fb7c7758094cb15b5f30eaa0c43,
        type: 3}
      propertyPath: m_Colors.m_HighlightedColor.g
      value: 0.65
      objectReference: {fileID: 0}
    - target: {fileID: 7123331991212427440, guid: 4cf38fb7c7758094cb15b5f30eaa0c43,
        type: 3}
      propertyPath: m_Colors.m_HighlightedColor.b
      value: 0.65
      objectReference: {fileID: 0}
    - target: {fileID: 7123331991212427440, guid: 4cf38fb7c7758094cb15b5f30eaa0c43,
        type: 3}
      propertyPath: m_Colors.m_PressedColor.r
      value: 0.5
      objectReference: {fileID: 0}
    - target: {fileID: 7123331991212427440, guid: 4cf38fb7c7758094cb15b5f30eaa0c43,
        type: 3}
      propertyPath: m_Colors.m_PressedColor.g
      value: 0.5
      objectReference: {fileID: 0}
    - target: {fileID: 7123331991212427440, guid: 4cf38fb7c7758094cb15b5f30eaa0c43,
        type: 3}
      propertyPath: m_Colors.m_PressedColor.b
      value: 0.5
      objectReference: {fileID: 0}
    m_RemovedComponents: []
  m_SourcePrefab: {fileID: 100100000, guid: 4cf38fb7c7758094cb15b5f30eaa0c43, type: 3}
--- !u!224 &6623332552280064859 stripped
RectTransform:
  m_CorrespondingSourceObject: {fileID: 2629932860691610354, guid: 4cf38fb7c7758094cb15b5f30eaa0c43,
    type: 3}
  m_PrefabInstance: {fileID: 6623332552280064858}
  m_PrefabAsset: {fileID: 0}
